<svg version="1.2" xmlns="http://www.w3.org/2000/svg" viewBox="0 0 24 24" width="24" height="24">
<style></style>
<path fill="currentColor" d="m14.1 3.8q0 0-0.1 0 0.1-0.2 0.1-0.3c0-0.4 0-0.8-0.3-1.1-0.4-0.7-1.1-0.9-1.8-1-0.7 0.1-1.4 0.3-1.8 1-0.3 0.3-0.3 0.7-0.3 1.1q0 0.1 0.1 0.3-0.1 0-0.1 0-0.3 0-0.3 0.3 0 0.4 0.2 0.7 0.1 0.3 0.4 0.3 0 0.1 0 0.2c0.2 0.7 0.9 1.6 1.7 1.6q0.1 0 0.1 0 0 0 0.1 0c0.8 0 1.5-0.9 1.7-1.6q0-0.1 0-0.2 0.3 0 0.4-0.3 0.2-0.3 0.2-0.7 0-0.3-0.3-0.3z"/>
<path fill="currentColor" d="m16.2 8.9c-0.1-0.3-0.4-0.5-0.7-0.7-0.3-0.2-0.6-0.4-0.9-0.5l-0.1-0.1c-0.3-0.1-0.6-0.3-1-0.4q0 0 0 0c0 0.1-0.8 2.5-0.9 2.5 0-0.1-0.2-1.2-0.2-1.3v-0.1q0 0 0 0 0 0 0 0 0.1-0.2 0.2-0.3 0-0.1 0-0.1 0-0.1 0-0.2l-0.1-0.1q0-0.1 0-0.2 0 0-0.1 0c-0.1 0-0.8 0-0.8 0q-0.1 0-0.1 0 0 0.1 0 0.2l-0.1 0.1q0 0.1 0 0.2 0 0 0 0.1 0.1 0.1 0.2 0.3 0 0 0 0 0 0 0 0v0.1c0 0.1-0.2 1.2-0.2 1.3-0.1 0-0.9-2.4-0.9-2.5q0 0 0 0c-0.4 0.1-0.7 0.3-1 0.4l-0.1 0.1c-0.3 0.1-0.6 0.3-0.9 0.5-0.3 0.2-0.6 0.4-0.7 0.7-0.1 0.3-0.1 0.6-0.1 0.9v0.1q0 0.1 0 0.2c0 0.1 0.1 0.2 0.3 0.3q0 0 0 0 0.2 0.1 0.5 0.3c0.5 0.2 1.2 0.4 2 0.5q0.4 0.1 0.7 0.1 0.4 0 0.8 0 0.4 0 0.8 0 0.3 0 0.7-0.1c0.8-0.1 1.5-0.3 2-0.5q0.3-0.2 0.5-0.3 0 0 0 0c0.2-0.1 0.3-0.2 0.3-0.3q0-0.1 0-0.2v-0.1c0-0.3 0-0.6-0.1-0.9z"/>
<path fill="currentColor" d="m21.1 14.3q0-0.1-0.1-0.1 0-0.1 0.1-0.2c0-0.4 0-0.8-0.3-1.2-0.5-0.6-1.1-0.8-1.8-0.9-0.8 0.1-1.4 0.3-1.9 0.9-0.2 0.4-0.3 0.8-0.2 1.2q0 0.1 0 0.2 0 0-0.1 0.1-0.3 0-0.3 0.3 0 0.4 0.2 0.7 0.2 0.3 0.4 0.2 0.1 0.1 0.1 0.2c0.2 0.7 0.9 1.7 1.7 1.7q0 0 0.1 0 0 0 0 0c0.8 0 1.5-1 1.7-1.7q0.1-0.1 0.1-0.2 0.3 0.1 0.4-0.2 0.2-0.3 0.2-0.7 0-0.3-0.3-0.3z"/>
<path fill="currentColor" d="m23.2 19.4c-0.2-0.3-0.4-0.5-0.7-0.7-0.3-0.2-0.7-0.4-0.9-0.6h-0.1c-0.3-0.2-0.7-0.3-1-0.4q0 0 0 0c-0.1 0-0.9 2.5-0.9 2.5 0-0.1-0.2-1.2-0.2-1.3v-0.1q0 0 0 0 0 0 0-0.1 0.1-0.1 0.2-0.3 0 0 0 0 0-0.1-0.1-0.2v-0.1q0-0.1-0.1-0.2 0 0 0 0c-0.1-0.1-0.8-0.1-0.9 0q0 0 0 0 0 0.1-0.1 0.2v0.1q0 0.1-0.1 0.2 0 0 0 0 0.1 0.2 0.2 0.3 0.1 0.1 0.1 0.1 0 0 0 0v0.1c-0.1 0.1-0.3 1.2-0.3 1.2 0 0-0.8-2.4-0.8-2.4q-0.1 0-0.1 0c-0.3 0.1-0.6 0.2-0.9 0.4h-0.1c-0.3 0.2-0.7 0.4-1 0.6-0.2 0.2-0.5 0.4-0.6 0.7-0.2 0.3-0.1 0.6-0.1 0.9v0.1q0 0 0 0.1c0 0.2 0.1 0.3 0.2 0.3q0 0.1 0.1 0.1 0.2 0.1 0.4 0.2c0.6 0.3 1.2 0.5 2 0.6q0.4 0 0.8 0.1 0.4 0 0.7 0h0.1q0.4 0 0.7 0 0.4-0.1 0.8-0.1c0.8-0.1 1.4-0.3 2-0.6q0.2-0.1 0.5-0.2 0 0 0-0.1c0.1 0 0.3-0.1 0.3-0.3q0-0.1 0-0.1v-0.1c0-0.3 0-0.6-0.1-0.9z"/>
<path fill="currentColor" d="m7.2 14.3q-0.1-0.1-0.1-0.1 0-0.1 0-0.2c0.1-0.4 0-0.8-0.2-1.2-0.5-0.6-1.1-0.8-1.9-0.9-0.7 0.1-1.3 0.3-1.8 0.9-0.3 0.4-0.3 0.8-0.3 1.2q0.1 0.1 0.1 0.2-0.1 0-0.1 0.1-0.3 0-0.3 0.3 0 0.4 0.2 0.7 0.1 0.3 0.4 0.2 0 0.1 0.1 0.2c0.2 0.7 0.9 1.7 1.7 1.7q0 0 0 0 0.1 0 0.1 0c0.8 0 1.5-1 1.7-1.7q0-0.1 0.1-0.2 0.2 0.1 0.4-0.2 0.2-0.3 0.2-0.7 0-0.3-0.3-0.3z"/>
<path fill="currentColor" d="m9.2 19.4c-0.1-0.3-0.4-0.5-0.6-0.7-0.3-0.2-0.7-0.4-1-0.6h-0.1c-0.3-0.2-0.6-0.3-0.9-0.4q0 0-0.1 0c0 0-0.8 2.5-0.8 2.5 0-0.1-0.2-1.2-0.3-1.3v-0.1q0 0 0 0 0 0 0.1-0.1 0.1-0.1 0.2-0.3 0 0 0 0-0.1-0.1-0.1-0.2v-0.1q-0.1-0.1-0.1-0.2 0 0 0 0c-0.1-0.1-0.8-0.1-0.9 0q0 0 0 0-0.1 0.1-0.1 0.2v0.1q-0.1 0.1-0.1 0.2 0 0 0 0 0.1 0.2 0.2 0.3 0 0.1 0 0.1 0 0 0 0v0.1c0 0.1-0.2 1.2-0.2 1.2 0 0-0.8-2.4-0.9-2.4q0 0 0 0c-0.3 0.1-0.7 0.2-1 0.4h-0.1c-0.2 0.2-0.6 0.4-0.9 0.6-0.3 0.2-0.5 0.4-0.7 0.7-0.1 0.3-0.1 0.6-0.1 0.9v0.1q0 0 0 0.1c0 0.2 0.2 0.3 0.3 0.3q0 0.1 0 0.1 0.3 0.1 0.5 0.2c0.6 0.3 1.2 0.5 2 0.6q0.4 0 0.8 0.1 0.3 0 0.7 0h0.1q0.3 0 0.7 0 0.4-0.1 0.8-0.1c0.8-0.1 1.4-0.3 2-0.6q0.2-0.1 0.4-0.2 0.1 0 0.1-0.1c0.1 0 0.2-0.1 0.2-0.3q0-0.1 0-0.1v-0.1c0-0.3 0.1-0.6-0.1-0.9z"/>
<path fill="currentColor" d="m12.6 13.9q0 0.6 0 1.1c0 0.2 0.1 0.3 0.3 0.4q1 0.6 2.1 1.3 0.4 0.2 0.3 0.6c0 0.3-0.2 0.5-0.5 0.5-0.2 0-0.3-0.1-0.5-0.2q-1-0.5-2.1-1.2c-0.1-0.1-0.3-0.1-0.4 0q-1.1 0.7-2.2 1.3c-0.4 0.2-0.8 0-0.9-0.4-0.1-0.2 0.1-0.5 0.3-0.7q1.1-0.6 2.1-1.2c0.2-0.1 0.3-0.2 0.3-0.4q0-1.1 0-2.3c0-0.5 0.4-0.8 0.9-0.6 0.2 0.1 0.3 0.4 0.3 0.6q0 0.3 0 0.6 0 0.3 0 0.6z"/></svg>